[{
        "ProductID": 1,
        "ProductName": "Laptop"
    },
    {
        "ProductID": 2,
        "ProductName": "Mobile"
    },
    {
        "ProductID": 3,
        "ProductName": "HeadPhone"
    },
    {
        "ProductID": 4,
        "ProductName": "Mouse"
    }
]